D flip-flop/trace.vcd
$date
     Nov 16, 2015       10:09:44
$end

$version
 SystemC 2.3.1-Accellera --- Sep 22 2015 11:58:33
$end

$timescale
     1 ns
$end

$scope module SystemC $end
$var wire    1  aaaaa  clock       $end
$var wire    1  aaaab  D       $end
$var wire    1  aaaac  dff1_Output_and_dff2_input       $end
$var wire    1  aaaad  Q8       $end
$var wire    1  aaaae  Qn8       $end
$upscope $end
$enddefinitions  $end

$comment
All initial values are dumped below at time 0 sec = 0 timescale units.
$end

$dumpvars
1aaaaa
0aaaab
0aaaac
0aaaad
1aaaae
$end

#910000
0aaaaa

#1300000
1aaaaa

#1500000
1aaaab

#2210000
0aaaaa

#2600000
1aaaaa
1aaaac

#3000000
0aaaab

#3510000
0aaaaa

#3900000
1aaaaa
0aaaac

#4500000
1aaaab

#4810000
0aaaaa

#5200000
1aaaaa
1aaaac

#6000000
0aaaab

#6110000
0aaaaa

#6500000
1aaaaa
0aaaac

#7410000
0aaaaa

#7500000
1aaaab

#7800000
1aaaaa
1aaaac

#8710000
0aaaaa

#9000000
0aaaab

#9100000
1aaaaa
0aaaac

#10010000
0aaaaa

#10400000
1aaaaa

#10500000
1aaaab

#11310000
0aaaaa

#11700000
1aaaaa
1aaaac
1aaaad
0aaaae

#12000000
0aaaab

#12610000
0aaaaa

#13000000
1aaaaa
0aaaac
0aaaad
1aaaae

#13500000
1aaaab

#13910000
0aaaaa

#14300000
1aaaaa
1aaaac
1aaaad
0aaaae

#15000000
0aaaab

#15210000
0aaaaa

#15600000
1aaaaa
0aaaac
0aaaad
1aaaae

#16500000
1aaaab

#16510000
0aaaaa

#16900000
1aaaaa
1aaaac
1aaaad
0aaaae

#17810000
0aaaaa

#18000000
0aaaab

#18200000
1aaaaa
0aaaac
0aaaad
1aaaae

#19110000
0aaaaa

#19500000
1aaaaa
1aaaab
1aaaac

