Andati Lexy Amwayi A.L./timing_diagram.vcd
$date
     Oct 29, 2015       19:07:40
$end

$version
 SystemC 2.3.1-Accellera --- Oct 12 2015 17:49:44
$end

$timescale
     1 ns
$end

$scope module SystemC $end
$var wire    1  aaaaa  binary_input1       $end
$var wire    1  aaaab  binary_input2       $end
$var wire    1  aaaac  input_is_three       $end
$var wire    1  aaaad  input_is_two       $end
$var wire    1  aaaae  input_is_one       $end
$var wire    1  aaaaf  input_is_zero       $end
$upscope $end
$enddefinitions  $end

$comment
All initial values are dumped below at time 0 sec = 0 timescale units.
$end

$dumpvars
0aaaaa
0aaaab
0aaaac
0aaaad
0aaaae
1aaaaf
$end

#5
1aaaab
1aaaae
0aaaaf

#10
1aaaaa
0aaaab
1aaaad
0aaaae

#15
1aaaab
1aaaac
0aaaad

#20
0aaaaa
0aaaab
0aaaac
1aaaaf

#25
1aaaab
1aaaae
0aaaaf

#30
1aaaaa
0aaaab
1aaaad
0aaaae

#35
1aaaab
1aaaac
0aaaad

#40
0aaaaa
0aaaab
0aaaac
1aaaaf

#45
1aaaab
1aaaae
0aaaaf

#50
1aaaaa
0aaaab
1aaaad
0aaaae

#55
1aaaab
1aaaac
0aaaad

#60
0aaaaa
0aaaab
0aaaac
1aaaaf

#65
1aaaab
1aaaae
0aaaaf

#70
1aaaaa
0aaaab
1aaaad
0aaaae

