Owoko_Makochieng/T_FF_Assignment_II/timingDiagram.vcd
$date
     Dec 06, 2015       20:56:29
$end

$version
 SystemC 2.3.1-Accellera --- Dec  4 2015 01:24:20
$end

$timescale
     1 ns
$end

$scope module SystemC $end
$var wire    1  aaaaa  data_input       $end
$var wire    1  aaaab  clock_signal       $end
$var wire    1  aaaac  reset_switch       $end
$var wire    1  aaaad  Output       $end
$upscope $end
$enddefinitions  $end

$comment
All initial values are dumped below at time 0 sec = 0 timescale units.
$end

$dumpvars
0aaaaa
0aaaab
0aaaac
1aaaad
$end

#4
1aaaac

#5
1aaaaa

#7
1aaaab
0aaaad

#8
0aaaac

#10
0aaaaa

#12
1aaaac

#14
0aaaab

#15
1aaaaa

#16
0aaaac

#20
0aaaaa
1aaaac

#21
1aaaab

#24
0aaaac

#25
1aaaaa

#28
0aaaab
1aaaac

#30
0aaaaa

#32
0aaaac

#35
1aaaaa
1aaaab
1aaaad

#36
1aaaac

#40
0aaaaa
0aaaac

#42
0aaaab

#44
1aaaac

#45
1aaaaa

#48
0aaaac

#49
1aaaab
0aaaad

#50
0aaaaa

#52
1aaaac

#55
1aaaaa

#56
0aaaab
0aaaac

#60
0aaaaa
1aaaac

#63
1aaaab

#64
0aaaac

#65
1aaaaa

#68
1aaaac

#70
0aaaaa
0aaaab

#72
0aaaac

