ABELEVAN/DLatch/timing_diagram.vcd
$date
     Nov 30, 2015       17:46:50
$end

$version
 SystemC 2.3.1-Accellera --- Oct 12 2015 17:49:44
$end

$scope module SystemC $end
$var wire    1  aaaaa  binary_input       $end
$var wire    1  aaaab  Enable_signal       $end
$var wire    1  aaaac  output       $end
$upscope $end
$enddefinitions  $end

$comment
All initial values are dumped below at time 0 sec = 0 timescale units.
$end

$dumpvars
0aaaaa
0aaaab
0aaaac
$end

#6
1aaaab

#10
1aaaaa
1aaaac

#14
0aaaab

#20
0aaaaa
1aaaab
0aaaac

#28
0aaaab

#30
1aaaaa

#34
1aaaab
1aaaac

#40
0aaaaa
0aaaac

#42
0aaaab

#48
1aaaab

#50
1aaaaa
1aaaac

#56
0aaaab

